CpuDesignCourse/hw2/code/main.vcd
$date
	Fri Nov 11 20:46:46 2022
$end
$version
	Icarus Verilog
$end
$timescale
	1ps
$end
$scope module main $end
$var reg 1 ! clk $end
$var reg 1 " reset $end
$scope module mips $end
$var wire 5 # RegRd1 [4:0] $end
$var wire 5 $ RegRd2 [4:0] $end
$var wire 1 ! clk $end
$var wire 32 % dm_data [31:0] $end
$var wire 1 " reset $end
$var wire 32 & write_data [31:0] $end
$var wire 1 ' slt_op $end
$var wire 5 ( rt [4:0] $end
$var wire 5 ) rs [4:0] $end
$var wire 32 * read_data2 [31:0] $end
$var wire 32 + read_data1 [31:0] $end
$var wire 5 , rd [4:0] $end
$var wire 30 - pc_plus [31:2] $end
$var wire 4 . pc_high [31:28] $end
$var wire 30 / pc [31:2] $end
$var wire 6 0 op [5:0] $end
$var wire 30 1 next_pc [31:2] $end
$var wire 1 2 luiop $end
$var wire 30 3 instr [31:2] $end
$var wire 16 4 imm_low16 [15:0] $end
$var wire 26 5 im_outs [25:0] $end
$var wire 32 6 im_out [31:0] $end
$var wire 1 7 ifbeq $end
$var wire 6 8 func [5:0] $end
$var wire 1 9 extop $end
$var wire 32 : b [31:0] $end
$var wire 2 ; aluop [1:0] $end
$var wire 32 < alu_res [31:0] $end
$var wire 10 = add_im [11:2] $end
$var wire 10 > add_dm [11:2] $end
$var wire 32 ? _imm_extend [31:0] $end
$var wire 1 @ RegWrite $end
$var wire 1 A RegDst $end
$var wire 1 B MemtoReg $end
$var wire 1 C MemWrite $end
$var wire 32 D MEMout [31:0] $end
$var wire 1 E JR $end
$var wire 1 F JAL $end
$var wire 1 G J $end
$var wire 1 H ALUsrc $end
$var wire 5 I A3 [4:0] $end
$scope module ALU $end
$var wire 2 J op [1:0] $end
$var wire 32 K b [31:0] $end
$var wire 32 L a [31:0] $end
$var reg 32 M sum [31:0] $end
$upscope $end
$scope module DM $end
$var wire 10 N addr [11:2] $end
$var wire 1 ! clk $end
$var wire 32 O data [31:0] $end
$var wire 1 B out_enable $end
$var wire 1 C in_enable $end
$var reg 32 P data_out [31:0] $end
$var integer 32 Q i [31:0] $end
$upscope $end
$scope module EXT $end
$var wire 16 R A [15:0] $end
$var wire 1 2 luiop $end
$var wire 1 9 extop $end
$var reg 32 S res [31:0] $end
$var reg 32 T tmp [31:0] $end
$upscope $end
$scope module GPR $end
$var wire 32 U Rddata1 [31:0] $end
$var wire 32 V Rddata2 [31:0] $end
$var wire 5 W Regrd1 [4:0] $end
$var wire 5 X Regrd2 [4:0] $end
$var wire 1 " Reset $end
$var wire 1 ! clk $end
$var wire 30 Y pc_plus [31:2] $end
$var wire 1 ' slt_op $end
$var wire 32 Z Wddata [31:0] $end
$var wire 5 [ Regwt [4:0] $end
$var wire 1 @ Regwrite $end
$var wire 1 F JAL $end
$var reg 32 \ tmp [31:0] $end
$var integer 32 ] i [31:0] $end
$upscope $end
$scope module IM $end
$var wire 10 ^ addr [11:2] $end
$var reg 32 _ IS [31:0] $end
$var integer 32 ` i [31:0] $end
$upscope $end
$scope module NPC $end
$var wire 32 a IsZero [31:0] $end
$var wire 16 b offset [15:0] $end
$var wire 30 c now_pc [31:2] $end
$var wire 30 d instr [31:2] $end
$var wire 1 7 ifbeq $end
$var wire 1 G J $end
$var reg 30 e next_pc [31:2] $end
$var reg 30 f tmp [29:0] $end
$var reg 32 g total [31:0] $end
$var reg 32 h total_now [31:0] $end
$upscope $end
$scope module PC $end
$var wire 1 ! clk $end
$var wire 30 i next_pc [31:2] $end
$var wire 1 " reset $end
$var reg 30 j pc [31:2] $end
$upscope $end
$scope module controller $end
$var wire 6 k func [5:0] $end
$var wire 6 l op [5:0] $end
$var reg 1 H ALUsrc $end
$var reg 1 G J $end
$var reg 1 F JAL $end
$var reg 1 E JR $end
$var reg 1 C MemWrite $end
$var reg 1 B MemtoReg $end
$var reg 1 A RegDst $end
$var reg 1 @ RegWrite $end
$var reg 1 m addi $end
$var reg 1 n addu $end
$var reg 2 o aluop [1:0] $end
$var reg 1 p beq $end
$var reg 1 9 extop $end
$var reg 1 7 ifbeq $end
$var reg 1 q j $end
$var reg 1 r jal $end
$var reg 1 s jr $end
$var reg 1 t lui $end
$var reg 1 2 luiop $end
$var reg 1 u lw $end
$var reg 1 v ori $end
$var reg 1 w slt $end
$var reg 1 ' slt_op $end
$var reg 1 x subu $end
$var reg 1 y sw $end
$upscope $end
$scope module mux_ALU $end
$var wire 1 H ALUsrc $end
$var wire 32 z Rddata2 [31:0] $end
$var wire 32 { _imm [31:0] $end
$var reg 32 | res [31:0] $end
$upscope $end
$scope module mux_GPR $end
$var wire 1 A RegDst $end
$var wire 5 } rd [4:0] $end
$var wire 5 ~ rt [4:0] $end
$var reg 5 !" A3 [4:0] $end
$upscope $end
$scope module mux_instr $end
$var wire 1 E JR $end
$var wire 32 "" Rddata1 [31:0] $end
$var wire 26 #" im_outs [25:0] $end
$var wire 4 $" pc_s [31:28] $end
$var reg 30 %" instr [31:2] $end
$var reg 32 &" temp [31:0] $end
$upscope $end
$scope module mux_write $end
$var wire 32 '" alu_out [31:0] $end
$var wire 32 (" dm_out [31:0] $end
$var wire 1 B out $end
$var reg 32 )" write_data [31:0] $end
$upscope $end
$upscope $end
$upscope $end
$enddefinitions $end
#0
$dumpvars
bx )"
b0 ("
bx '"
bx &"
bx %"
bx $"
bx #"
bx ""
bx !"
bx ~
bx }
bx |
bx {
bx z
xy
xx
xw
xv
xu
xt
xs
xr
xq
xp
bx o
xn
xm
bx l
bx k
bx j
bx i
bx h
bx g
bx f
bx e
bx d
bx c
bx b
bx a
b10000000000 `
bx _
bx ^
b11111 ]
bx \
bx [
bx Z
bx Y
bx X
bx W
bx V
bx U
bx T
bx S
bx R
b10000000000 Q
b0 P
bx O
bx N
bx M
bx L
bx K
bx J
bx I
xH
xG
xF
xE
b0 D
xC
xB
xA
x@
bx ?
bx >
bx =
bx <
bx ;
bx :
x9
bx 8
x7
bx 6
bx 5
bx 4
bx 3
x2
bx 1
bx 0
bx /
bx .
bx -
bx ,
bx +
bx *
bx )
bx (
x'
bx &
bx %
bx $
bx #
1"
0!
$end
#5000
b0 >
b0 N
b1 &
b1 Z
b1 )"
b1 <
b1 M
b1 a
b1 '"
b1 ?
b1 S
b1 {
b1 T
b1 ;
b1 J
b1 o
0'
0E
0G
0F
02
07
19
0C
1@
0B
1H
0A
0s
0r
0q
0w
0t
0p
0y
0u
1v
0x
0m
0n
b101 I
b101 [
b101 !"
b1 :
b1 K
b1 |
b1 4
b1 R
b1 b
b1 8
b1 k
b1101 0
b1101 l
b0 ,
b0 }
b0 %
b0 O
b0 *
b0 V
b0 z
b101 $
b101 X
b101 (
b101 ~
b0 +
b0 L
b0 U
b0 ""
b101 #
b101 W
b101 )
b101001010000000000000001 5
b101001010000000000000001 #"
b101001010000000000000001 &"
b101001010000000000000001 3
b101001010000000000000001 d
b101001010000000000000001 %"
b110100101001010000000000000001 6
b110100101001010000000000000001 _
b0 .
b0 $"
b0 =
b0 ^
b1100000000000000 h
b1100000000000100 g
b11000000000001 1
b11000000000001 e
b11000000000001 i
b11000000000001 -
b11000000000001 Y
b11000000000000 /
b11000000000000 c
b11000000000000 j
b100000 ]
1!
#6000
0"
#10000
0!
#15000
b10 &
b10 Z
b10 )"
b10 <
b10 M
b10 a
b10 '"
b1101 I
b1101 [
b1101 !"
b110100000100001 ?
b110100000100001 S
b110100000100001 {
b110100000100001 T
b11 ;
b11 J
b11 o
1A
1n
19
1@
0H
0v
b101001010110100000100001 &"
b101001010110100000100001 3
b101001010110100000100001 d
b101001010110100000100001 %"
b110100000100001 4
b110100000100001 R
b110100000100001 b
b100001 8
b100001 k
b0 0
b0 l
b1101 ,
b1101 }
b101001010110100000100001 5
b101001010110100000100001 #"
b101001010110100000100001 6
b101001010110100000100001 _
b1 =
b1 ^
b1100000000000100 h
b1100000000001000 g
b11000000000010 1
b11000000000010 e
b11000000000010 i
b11000000000010 -
b11000000000010 Y
b11000000000001 /
b11000000000001 c
b11000000000001 j
b1 +
b1 L
b1 U
b1 ""
b1 %
b1 O
b1 *
b1 V
b1 z
1!
#20000
0!
#25000
b1 >
b1 N
b100 &
b100 Z
b100 )"
b100 ?
b100 S
b100 {
b100 T
1H
1m
19
1@
0A
0n
b110 I
b110 [
b110 !"
b100 :
b100 K
b100 |
b100 <
b100 M
b100 a
b100 '"
b110001100000000000000100 &"
b110001100000000000000100 3
b110001100000000000000100 d
b110001100000000000000100 %"
b100 4
b100 R
b100 b
b100 8
b100 k
b1000 0
b1000 l
b0 ,
b0 }
b0 %
b0 O
b0 *
b0 V
b0 z
b110 $
b110 X
b110 (
b110 ~
b0 +
b0 L
b0 U
b0 ""
b110 #
b110 W
b110 )
b110001100000000000000100 5
b110001100000000000000100 #"
b100000110001100000000000000100 6
b100000110001100000000000000100 _
b10 =
b10 ^
b1100000000001000 h
b1100000000001100 g
b11000000000011 1
b11000000000011 e
b11000000000011 i
b11000000000011 -
b11000000000011 Y
b11000000000010 /
b11000000000010 c
b11000000000010 j
1!
#30000
0!
#35000
b0 :
b0 K
b0 |
b0 ?
b0 S
b0 {
b0 T
1C
1y
19
0@
1H
0m
b110001100000000000000000 &"
b110001100000000000000000 3
b110001100000000000000000 d
b110001100000000000000000 %"
b0 4
b0 R
b0 b
b0 8
b0 k
b101011 0
b101011 l
b110001100000000000000000 5
b110001100000000000000000 #"
b10101100110001100000000000000000 6
b10101100110001100000000000000000 _
b11 =
b11 ^
b1100000000001100 h
b1100000000010000 g
b11000000000100 1
b11000000000100 e
b11000000000100 i
b11000000000100 -
b11000000000100 Y
b11000000000011 /
b11000000000011 c
b11000000000011 j
b100 &
b100 Z
b100 )"
b1 >
b1 N
b100 <
b100 M
b100 a
b100 '"
b100 +
b100 L
b100 U
b100 ""
b100 %
b100 O
b100 *
b100 V
b100 z
1!
#40000
0!
#45000
b100 D
b100 P
b100 ("
b100 :
b100 K
b100 |
b100 &
b100 Z
b100 )"
b1 >
b1 N
b100 ?
b100 S
b100 {
b100 T
1B
1@
1u
19
0C
1H
0y
b111 I
b111 [
b111 !"
b100 <
b100 M
b100 a
b100 '"
b1110000000000000100 &"
b1110000000000000100 3
b1110000000000000100 d
b1110000000000000100 %"
b100 4
b100 R
b100 b
b100 8
b100 k
b100011 0
b100011 l
b0 %
b0 O
b0 *
b0 V
b0 z
b111 $
b111 X
b111 (
b111 ~
b0 +
b0 L
b0 U
b0 ""
b0 #
b0 W
b0 )
b1110000000000000100 5
b1110000000000000100 #"
b10001100000001110000000000000100 6
b10001100000001110000000000000100 _
b100 =
b100 ^
b1100000000010000 h
b1100000000010100 g
b11000000000101 1
b11000000000101 e
b11000000000101 i
b11000000000101 -
b11000000000101 Y
b11000000000100 /
b11000000000100 c
b11000000000100 j
1!
#50000
0!
#55000
b1111111111 >
b1111111111 N
b1000 I
b1000 [
b1000 !"
b11111111111111111111111111111101 &
b11111111111111111111111111111101 Z
b11111111111111111111111111111101 )"
b100000000101010 ?
b100000000101010 S
b100000000101010 {
b100000000101010 T
1'
b10 ;
b10 J
b10 o
1A
1w
19
1@
0B
0H
0u
b11111111111111111111111111111101 <
b11111111111111111111111111111101 M
b11111111111111111111111111111101 a
b11111111111111111111111111111101 '"
b101001110100000000101010 &"
b101001110100000000101010 3
b101001110100000000101010 d
b101001110100000000101010 %"
b100000000101010 4
b100000000101010 R
b100000000101010 b
b101010 8
b101010 k
b0 0
b0 l
b1000 ,
b1000 }
b1 +
b1 L
b1 U
b1 ""
b101 #
b101 W
b101 )
b101001110100000000101010 5
b101001110100000000101010 #"
b101001110100000000101010 6
b101001110100000000101010 _
b101 =
b101 ^
b1100000000010100 h
b1100000000011000 g
b11000000000110 1
b11000000000110 e
b11000000000110 i
b11000000000110 -
b11000000000110 Y
b11000000000101 /
b11000000000101 c
b11000000000101 j
b100 %
b100 O
b100 *
b100 V
b100 z
1!
#60000
0!
#65000
b1 f
b0 &
b0 Z
b0 )"
b0 >
b0 N
b0 <
b0 M
b0 a
b0 '"
b1 ?
b1 S
b1 {
b1 T
17
1p
0'
19
0@
0A
0w
b101 I
b101 [
b101 !"
b1 :
b1 K
b1 |
b1000001010000000000000001 &"
b1000001010000000000000001 3
b1000001010000000000000001 d
b1000001010000000000000001 %"
b1 4
b1 R
b1 b
b1 8
b1 k
b100 0
b100 l
b0 ,
b0 }
b1 %
b1 O
b1 *
b1 V
b1 z
b101 $
b101 X
b101 (
b101 ~
b1000 #
b1000 W
b1000 )
b1000001010000000000000001 5
b1000001010000000000000001 #"
b10001000001010000000000000001 6
b10001000001010000000000000001 _
b110 =
b110 ^
b1100000000011000 h
b1100000000100000 g
b11000000001000 1
b11000000001000 e
b11000000001000 i
b11000000000111 -
b11000000000111 Y
b11000000000110 /
b11000000000110 c
b11000000000110 j
1!
#70000
0!
#75000
b1001 I
b1001 [
b1001 !"
b11 &
b11 Z
b11 )"
b100100000100011 ?
b100100000100011 S
b100100000100011 {
b100100000100011 T
1@
1A
1x
07
19
0p
b11 <
b11 M
b11 a
b11 '"
b111001010100100000100011 &"
b111001010100100000100011 3
b111001010100100000100011 d
b111001010100100000100011 %"
b100100000100011 4
b100100000100011 R
b100100000100011 b
b100011 8
b100011 k
b0 0
b0 l
b1001 ,
b1001 }
b100 +
b100 L
b100 U
b100 ""
b111 #
b111 W
b111 )
b111001010100100000100011 5
b111001010100100000100011 #"
b111001010100100000100011 6
b111001010100100000100011 _
b1000 =
b1000 ^
b1100000000100000 h
b1100000000100100 g
b11000000001001 1
b11000000001001 e
b11000000001001 i
b11000000001001 -
b11000000001001 Y
b11000000001000 /
b11000000001000 c
b11000000001000 j
1!
#80000
0!
#85000
b0 &
b0 Z
b0 )"
b0 >
b0 N
b110000001100 ?
b110000001100 S
b110000001100 {
b110000001100 T
1G
1q
19
0@
0A
0x
b0 I
b0 [
b0 !"
b0 :
b0 K
b0 |
b0 <
b0 M
b0 a
b0 '"
b110000001100 &"
b110000001100 3
b110000001100 d
b110000001100 %"
b110000001100 4
b110000001100 R
b110000001100 b
b1100 8
b1100 k
b10 0
b10 l
b1 ,
b1 }
b0 %
b0 O
b0 *
b0 V
b0 z
b0 $
b0 X
b0 (
b0 ~
b0 +
b0 L
b0 U
b0 ""
b0 #
b0 W
b0 )
b110000001100 5
b110000001100 #"
b1000000000000000110000001100 6
b1000000000000000110000001100 _
b1001 =
b1001 ^
b1100000000100100 h
b11000000110000 g
b110000001100 1
b110000001100 e
b110000001100 i
b11000000001010 -
b11000000001010 Y
b11000000001001 /
b11000000001001 c
b11000000001001 j
1!
#90000
0!
#95000
b10000000000000000 &
b10000000000000000 Z
b10000000000000000 )"
b10000000000000000 <
b10000000000000000 M
b10000000000000000 a
b10000000000000000 '"
b10000000000000000 :
b10000000000000000 K
b10000000000000000 |
b10000000000000000 ?
b10000000000000000 S
b10000000000000000 {
b1 T
b11000000110100 g
b110000001101 1
b110000001101 e
b110000001101 i
b11 ;
b11 J
b11 o
1H
1@
12
1t
0G
09
0q
b1010 I
b1010 [
b1010 !"
b10100000000000000001 &"
b10100000000000000001 3
b10100000000000000001 d
b10100000000000000001 %"
b1 4
b1 R
b1 b
b1 8
b1 k
b1111 0
b1111 l
b0 ,
b0 }
b1010 $
b1010 X
b1010 (
b1010 ~
b10100000000000000001 5
b10100000000000000001 #"
b111100000010100000000000000001 6
b111100000010100000000000000001 _
b1100 =
b1100 ^
b11000000110000 h
b110000001101 -
b110000001101 Y
b110000001100 /
b110000001100 c
b110000001100 j
1!
#100000
0!
#105000
b0 &
b0 Z
b0 )"
b0 <
b0 M
b0 a
b0 '"
b0 :
b0 K
b0 |
b110000001010 ?
b110000001010 S
b110000001010 {
b110000001010 T
1F
1G
1r
19
02
1@
0H
0t
b0 I
b0 [
b0 !"
b110000001010 &"
b110000001010 3
b110000001010 d
b110000001010 %"
b110000001010 4
b110000001010 R
b110000001010 b
b1010 8
b1010 k
b11 0
b11 l
b1 ,
b1 }
b0 $
b0 X
b0 (
b0 ~
b110000001010 5
b110000001010 #"
b1100000000000000110000001010 6
b1100000000000000110000001010 _
b1101 =
b1101 ^
b11000000110100 h
b11000000101000 g
b110000001010 1
b110000001010 e
b110000001010 i
b110000001110 -
b110000001110 Y
b110000001101 /
b110000001101 c
b110000001101 j
b0 %
b0 O
b0 *
b0 V
b0 z
1!
#110000
0!
#115000
b11111111111111110000000000000100 &
b11111111111111110000000000000100 Z
b11111111111111110000000000000100 )"
b1 >
b1 N
b101100000100011 ?
b101100000100011 S
b101100000100011 {
b101100000100011 T
b11000000101100 g
b110000001011 1
b110000001011 e
b110000001011 i
b10 ;
b10 J
b10 o
1A
1x
0G
0F
19
1@
0r
b1011 I
b1011 [
b1011 !"
b10000000000000000 :
b10000000000000000 K
b10000000000000000 |
b11111111111111110000000000000100 <
b11111111111111110000000000000100 M
b11111111111111110000000000000100 a
b11111111111111110000000000000100 '"
b110010100101100000100011 &"
b110010100101100000100011 3
b110010100101100000100011 d
b110010100101100000100011 %"
b101100000100011 4
b101100000100011 R
b101100000100011 b
b100011 8
b100011 k
b0 0
b0 l
b1011 ,
b1011 }
b10000000000000000 %
b10000000000000000 O
b10000000000000000 *
b10000000000000000 V
b10000000000000000 z
b1010 $
b1010 X
b1010 (
b1010 ~
b100 +
b100 L
b100 U
b100 ""
b110 #
b110 W
b110 )
b110010100101100000100011 5
b110010100101100000100011 #"
b110010100101100000100011 6
b110010100101100000100011 _
b1010 =
b1010 ^
b11000000101000 h
b110000001011 -
b110000001011 Y
b110000001010 /
b110000001010 c
b110000001010 j
b110000001110 \
1!
#120000
0!
#125000
b11000000111000 &
b11000000111000 Z
b11000000111000 )"
b1110 >
b1110 N
b1000 ?
b1000 S
b1000 {
b1000 T
1E
1G
1s
19
0@
0A
0x
b0 I
b0 [
b0 !"
b0 :
b0 K
b0 |
b11000000111000 <
b11000000111000 M
b11000000111000 a
b11000000111000 '"
b110000001110 &"
b110000001110 3
b110000001110 d
b110000001110 %"
b1000 4
b1000 R
b1000 b
b1000 8
b1000 k
b0 ,
b0 }
b0 %
b0 O
b0 *
b0 V
b0 z
b0 $
b0 X
b0 (
b0 ~
b11000000111000 +
b11000000111000 L
b11000000111000 U
b11000000111000 ""
b11111 #
b11111 W
b11111 )
b11111000000000000000001000 5
b11111000000000000000001000 #"
b11111000000000000000001000 6
b11111000000000000000001000 _
b1011 =
b1011 ^
b11000000101100 h
b11000000111000 g
b110000001110 1
b110000001110 e
b110000001110 i
b110000001100 -
b110000001100 Y
b110000001011 /
b110000001011 c
b110000001011 j
1!
#130000
0!
#135000
b1100 :
b1100 K
b1100 |
b1100 &
b1100 Z
b1100 )"
b11 >
b11 N
b1100 ?
b1100 S
b1100 {
b1100 T
b11000000111100 g
b110000001111 1
b110000001111 e
b110000001111 i
b1 ;
b1 J
b1 o
1H
1@
1v
0E
0G
19
0s
b1100 I
b1100 [
b1100 !"
b1100 <
b1100 M
b1100 a
b1100 '"
b1100011000000000000001100 &"
b1100011000000000000001100 3
b1100011000000000000001100 d
b1100011000000000000001100 %"
b1100 4
b1100 R
b1100 b
b1100 8
b1100 k
b1101 0
b1101 l
b1100 $
b1100 X
b1100 (
b1100 ~
b0 +
b0 L
b0 U
b0 ""
b1100 #
b1100 W
b1100 )
b1100011000000000000001100 5
b1100011000000000000001100 #"
b110101100011000000000000001100 6
b110101100011000000000000001100 _
b1110 =
b1110 ^
b11000000111000 h
b110000001111 -
b110000001111 Y
b110000001110 /
b110000001110 c
b110000001110 j
1!
#140000
0!
#145000
b0 &
b0 Z
b0 )"
b0 >
b0 N
b0 <
b0 M
b0 a
b0 '"
b0 :
b0 K
b0 |
b0 ?
b0 S
b0 {
b0 T
19
0@
0H
0v
b0 I
b0 [
b0 !"
b0 &"
b0 3
b0 d
b0 %"
b0 4
b0 R
b0 b
b0 8
b0 k
b0 0
b0 l
b0 $
b0 X
b0 (
b0 ~
b0 #
b0 W
b0 )
b0 5
b0 #"
b0 6
b0 _
b1111 =
b1111 ^
b11000000111100 h
b11000001000000 g
b110000010000 1
b110000010000 e
b110000010000 i
b110000010000 -
b110000010000 Y
b110000001111 /
b110000001111 c
b110000001111 j
b0 +
b0 L
b0 U
b0 ""
b0 %
b0 O
b0 *
b0 V
b0 z
1!
#150000
0!
#155000
b10000 =
b10000 ^
b11000001000000 h
b11000001000100 g
b110000010001 1
b110000010001 e
b110000010001 i
b110000010001 -
b110000010001 Y
b110000010000 /
b110000010000 c
b110000010000 j
1!
#160000
0!
#165000
b10001 =
b10001 ^
b11000001000100 h
b11000001001000 g
b110000010010 1
b110000010010 e
b110000010010 i
b110000010010 -
b110000010010 Y
b110000010001 /
b110000010001 c
b110000010001 j
1!
#170000
0!
#175000
b10010 =
b10010 ^
b11000001001000 h
b11000001001100 g
b110000010011 1
b110000010011 e
b110000010011 i
b110000010011 -
b110000010011 Y
b110000010010 /
b110000010010 c
b110000010010 j
1!
#180000
0!
#185000
b10011 =
b10011 ^
b11000001001100 h
b11000001010000 g
b110000010100 1
b110000010100 e
b110000010100 i
b110000010100 -
b110000010100 Y
b110000010011 /
b110000010011 c
b110000010011 j
1!
#190000
0!
#195000
b10100 =
b10100 ^
b11000001010000 h
b11000001010100 g
b110000010101 1
b110000010101 e
b110000010101 i
b110000010101 -
b110000010101 Y
b110000010100 /
b110000010100 c
b110000010100 j
1!
#200000
0!
#205000
b10101 =
b10101 ^
b11000001010100 h
b11000001011000 g
b110000010110 1
b110000010110 e
b110000010110 i
b110000010110 -
b110000010110 Y
b110000010101 /
b110000010101 c
b110000010101 j
1!
#210000
0!
#215000
b10110 =
b10110 ^
b11000001011000 h
b11000001011100 g
b110000010111 1
b110000010111 e
b110000010111 i
b110000010111 -
b110000010111 Y
b110000010110 /
b110000010110 c
b110000010110 j
1!
#220000
0!
#225000
b10111 =
b10111 ^
b11000001011100 h
b11000001100000 g
b110000011000 1
b110000011000 e
b110000011000 i
b110000011000 -
b110000011000 Y
b110000010111 /
b110000010111 c
b110000010111 j
1!
#230000
0!
#235000
b11000 =
b11000 ^
b11000001100000 h
b11000001100100 g
b110000011001 1
b110000011001 e
b110000011001 i
b110000011001 -
b110000011001 Y
b110000011000 /
b110000011000 c
b110000011000 j
1!
#240000
0!
#245000
b11001 =
b11001 ^
b11000001100100 h
b11000001101000 g
b110000011010 1
b110000011010 e
b110000011010 i
b110000011010 -
b110000011010 Y
b110000011001 /
b110000011001 c
b110000011001 j
1!
#250000
0!
#255000
b11010 =
b11010 ^
b11000001101000 h
b11000001101100 g
b110000011011 1
b110000011011 e
b110000011011 i
b110000011011 -
b110000011011 Y
b110000011010 /
b110000011010 c
b110000011010 j
1!
#260000
0!
#265000
b11011 =
b11011 ^
b11000001101100 h
b11000001110000 g
b110000011100 1
b110000011100 e
b110000011100 i
b110000011100 -
b110000011100 Y
b110000011011 /
b110000011011 c
b110000011011 j
1!
#270000
0!
#275000
b11100 =
b11100 ^
b11000001110000 h
b11000001110100 g
b110000011101 1
b110000011101 e
b110000011101 i
b110000011101 -
b110000011101 Y
b110000011100 /
b110000011100 c
b110000011100 j
1!
#280000
0!
#285000
b11101 =
b11101 ^
b11000001110100 h
b11000001111000 g
b110000011110 1
b110000011110 e
b110000011110 i
b110000011110 -
b110000011110 Y
b110000011101 /
b110000011101 c
b110000011101 j
1!
#290000
0!
#295000
b11110 =
b11110 ^
b11000001111000 h
b11000001111100 g
b110000011111 1
b110000011111 e
b110000011111 i
b110000011111 -
b110000011111 Y
b110000011110 /
b110000011110 c
b110000011110 j
1!
#300000
0!
#305000
b11111 =
b11111 ^
b11000001111100 h
b11000010000000 g
b110000100000 1
b110000100000 e
b110000100000 i
b110000100000 -
b110000100000 Y
b110000011111 /
b110000011111 c
b110000011111 j
1!
